<svg width="60" height="43" viewBox="0 0 60 43" fill="none" xmlns="http://www.w3.org/2000/svg">
<path d="M58.7638 6.57346C58.0721 4.00313 56.0456 1.97707 53.4757 1.28494C48.7805 0 29.9994 0 29.9994 0C29.9994 0 11.2188 0 6.52356 1.23596C4.00313 1.92763 1.92718 4.00358 1.2355 6.57346C0 11.2683 0 21.0049 0 21.0049C0 21.0049 0 30.7904 1.2355 35.4362C1.92763 38.0061 3.95369 40.0326 6.52402 40.7248C11.2683 42.0097 29.9999 42.0097 29.9999 42.0097C29.9999 42.0097 48.7805 42.0097 53.4757 40.7737C56.0461 40.0821 58.0721 38.0556 58.7642 35.4857C59.9997 30.7904 59.9997 21.0543 59.9997 21.0543C59.9997 21.0543 60.0492 11.2683 58.7638 6.57346Z" fill="#F0741E"/>
<path d="M30.0001 6.66675C25.5411 6.66675 21.9133 10.2944 21.9133 14.7535V19.3721C21.9133 19.4246 21.8486 19.513 21.7977 19.5299C21.3604 19.6758 21.0052 19.8021 20.6801 19.9275C20.2924 20.0769 20 20.5066 20 20.9269V31.5391C20 31.9566 20.2905 32.3866 20.6758 32.5393C23.6565 33.7204 26.7937 34.3192 30.0001 34.3192C33.2065 34.3192 36.3436 33.7203 39.3245 32.5391C39.7096 32.3865 40 31.9566 40 31.5391V20.9269C40 20.5066 39.7076 20.0769 39.3197 19.9273C38.9945 19.802 38.6394 19.6756 38.2024 19.5298C38.1517 19.5129 38.0869 19.4244 38.0869 19.3719V14.7534C38.0867 10.2944 34.4591 6.66675 30.0001 6.66675ZM27.7975 24.159C27.7975 22.9417 28.7836 21.9566 30 21.9566C31.2162 21.9566 32.2024 22.9416 32.2024 24.159C32.2024 24.9657 31.7475 25.641 31.1012 26.0239V29.6652C31.1012 30.2739 30.6086 30.7664 29.9999 30.7664C29.3912 30.7664 28.8987 30.2739 28.8987 29.6652V26.0239C28.2524 25.641 27.7975 24.9657 27.7975 24.159ZM35.3062 14.7534V18.7384C33.5662 18.3639 31.781 18.1743 30.0008 18.1742C28.2215 18.1742 26.4367 18.3638 24.6939 18.7379V14.7534C24.6939 11.8275 27.0742 9.44733 30 9.44733C32.9257 9.44728 35.3062 11.8275 35.3062 14.7534Z" fill="white"/>
</svg>
