<svg width="320" height="398" viewBox="0 0 320 398" fill="none" xmlns="http://www.w3.org/2000/svg">
<g clip-path="url(#clip0_432_11050)">
<path d="M124.444 10.1617C121.481 10.1617 120.212 11.0085 120.212 13.1255C120.212 13.9723 120.635 14.8191 121.058 15.2425C121.905 15.666 123.175 16.0894 125.291 16.5128C127.407 16.9362 129.101 17.3596 129.947 18.2064C130.794 19.0532 131.217 19.9 131.217 22.017C131.217 23.7106 130.794 25.4043 129.524 26.2511C128.254 27.0979 126.561 27.5213 124.021 27.5213C122.751 27.5213 121.058 27.5213 118.942 27.0979H117.672V24.9808C120.212 25.4043 122.328 25.4043 124.021 25.4043C125.714 25.4043 126.561 24.9808 127.407 24.5574C128.254 24.134 128.677 23.2872 128.677 22.017C128.677 20.7468 128.254 19.9 127.831 19.4766C126.984 19.0532 125.714 18.6298 123.598 18.2064C121.481 17.783 119.788 17.3596 118.942 16.9362C118.095 16.5128 117.672 15.2426 117.672 13.5489C117.672 11.8553 118.095 10.5851 119.365 9.73829C121.058 8.46808 122.751 8.04468 124.444 8.04468C125.714 8.04468 127.831 8.04468 129.947 8.46808H130.794V10.5851C128.254 10.1617 126.138 10.1617 124.444 10.1617Z" fill="white"/>
<path d="M137.143 17.3596C137.143 20.3234 137.566 22.017 137.989 23.2872C138.836 24.5574 140.106 24.9809 142.222 24.9809C144.339 24.9809 146.032 24.5574 146.455 23.2872C146.878 22.017 148.148 20.3234 148.148 17.3596C148.148 14.3957 147.725 12.7021 146.878 11.4319C146.032 10.5851 144.762 9.7383 142.646 9.7383C140.529 9.7383 139.259 10.1617 138.413 11.4319C137.566 12.7021 137.143 14.3957 137.143 17.3596ZM134.603 17.3596C134.603 13.9723 135.026 11.4319 136.296 10.1617C137.566 8.89149 139.259 8.04468 142.222 8.04468C145.185 8.04468 146.878 8.89149 148.148 10.1617C149.418 11.4319 149.841 13.9723 149.841 17.3596C149.841 20.7468 149.418 23.2872 148.148 24.5574C146.878 25.8277 145.185 26.6745 142.222 26.6745C139.259 26.6745 137.143 25.8277 136.296 24.5574C135.45 23.2872 134.603 20.7468 134.603 17.3596Z" fill="white"/>
<path d="M156.19 10.1617V26.2511H154.074V6.77447C154.074 4.23404 154.497 2.54043 155.344 1.69362C155.767 0.423404 157.037 0 158.73 0H162.116V1.69362C160.847 1.69362 159.577 1.69362 158.73 1.69362C157.46 1.69362 156.614 2.11702 156.19 2.54043C155.767 2.96383 155.767 4.23404 155.767 6.35106V8.46809H161.27V10.5851H156.19V10.1617Z" fill="white"/>
<path d="M173.968 10.1617H168.042V19.0532C168.042 21.5936 168.042 22.8638 168.466 23.7107C168.889 24.5575 169.735 24.9809 171.005 24.9809L174.392 24.5575V26.2511C172.698 26.6745 171.429 26.6745 170.582 26.6745C168.889 26.6745 167.619 26.2511 166.772 25.4043C165.926 24.5575 165.503 22.8638 165.503 20.3234V2.54044H167.619V8.4681H173.545V10.1617H173.968Z" fill="white"/>
<path d="M182.011 12.7021V26.6745H176.931V7.62127C176.931 5.08085 177.354 3.38723 178.201 2.11702C179.048 1.27021 180.317 0.423401 182.434 0.423401C183.28 0.423401 184.55 0.423401 185.82 0.846805H186.667V4.65744C185.397 4.65744 184.55 4.65744 184.127 4.65744C183.28 4.65744 182.857 4.65744 182.857 5.08085C182.434 5.92766 182.011 6.77446 182.011 7.62127V8.46808H186.243V12.7021H182.011Z" fill="white"/>
<path d="M193.439 21.5936C193.862 22.4404 194.709 22.8638 195.979 22.8638C197.249 22.8638 198.095 22.4404 198.519 21.5936C198.942 20.7468 199.365 19.4766 199.365 17.3596C199.365 15.666 198.942 13.9723 198.519 13.1255C198.095 12.2787 197.249 11.8553 195.979 11.8553C194.709 11.8553 193.862 12.2787 193.439 13.1255C193.016 13.9723 192.593 15.2425 192.593 17.3596C193.016 19.4766 193.016 20.7468 193.439 21.5936ZM189.63 10.5851C190.899 8.89149 193.016 8.04468 195.979 8.04468C198.942 8.04468 201.058 8.89149 202.328 10.5851C203.598 12.2787 204.444 14.3957 204.444 17.783C204.444 24.134 201.481 27.5213 195.979 27.5213C190.476 27.5213 187.513 24.134 187.513 17.783C187.937 14.3957 188.36 12.2787 189.63 10.5851Z" fill="white"/>
<path d="M207.831 26.6745V8.46808H212.91V10.5851C215.026 9.31489 216.72 8.46808 218.836 8.04468V12.7021C216.72 13.1255 215.026 13.5489 213.757 13.9723L212.91 14.3957V26.6745H207.831Z" fill="white"/>
<path d="M225.608 26.6745H220.529V8.46808H225.608V9.31489C227.302 8.46808 228.571 8.04468 229.841 8.04468C231.958 8.04468 233.228 8.46808 234.497 9.7383C236.614 8.46808 238.73 8.04468 240.847 8.04468C243.386 8.04468 245.079 8.89149 245.926 10.1617C246.772 11.4319 247.196 13.9723 247.196 16.9362V26.6745H242.116V16.9362C242.116 15.2426 242.116 14.3957 241.693 13.5489C241.27 12.7021 240.847 12.2787 239.577 12.2787C238.73 12.2787 237.884 12.2787 236.614 12.7021H236.19C236.19 14.3957 236.19 16.0894 236.19 16.9362V26.2511H231.111V17.3596C231.111 15.666 231.111 14.3957 230.688 13.5489C230.265 12.7021 229.841 12.2787 228.571 12.2787C227.725 12.2787 226.878 12.2787 225.608 12.7021H225.185V26.6745H225.608Z" fill="white"/>
<path d="M256.931 19.0532C255.661 19.0532 254.815 19.9 254.815 21.1702C254.815 22.4404 255.238 23.2872 256.508 23.2872C257.354 23.2872 258.624 23.2872 259.471 22.8638H259.894V18.6298L256.931 19.0532ZM265.397 13.9723V21.5936C265.397 22.017 265.397 22.4404 265.82 22.8638C265.82 23.2872 266.243 23.2872 266.667 23.2872V27.0979C265.397 27.0979 264.55 27.0979 263.704 26.6745C262.857 26.6745 262.011 26.2511 261.587 25.8277C259.894 26.6745 258.201 27.0979 256.085 27.0979C251.852 27.0979 249.735 24.9808 249.735 21.1702C249.735 19.0532 250.159 17.783 251.429 16.9362C252.275 16.0894 253.968 15.666 256.085 15.666L259.894 15.2425V13.9723C259.894 13.1255 259.894 12.7021 259.471 12.2787C259.048 11.8553 258.624 11.8553 257.778 11.8553L251.005 12.2787V8.89149C253.545 8.04468 256.085 8.04468 258.624 8.04468C261.164 8.04468 262.857 8.46808 263.704 9.31489C264.55 10.5851 265.397 11.8553 265.397 13.9723Z" fill="white"/>
<path d="M274.286 26.6745H269.206V8.46808H274.286V9.31489C275.979 8.46808 277.672 8.04468 278.942 8.04468C281.481 8.04468 283.175 8.89149 284.021 10.1617C284.868 11.4319 285.291 13.9723 285.291 16.9362V26.6745H280.212V16.9362C280.212 15.2426 280.212 14.3957 279.788 13.5489C279.365 12.7021 278.519 12.2787 277.672 12.2787C276.825 12.2787 275.556 12.2787 274.709 12.7021H274.286V26.6745Z" fill="white"/>
<path d="M295.873 8.04468C297.143 8.04468 298.836 8.04468 300.952 8.46808L301.799 8.89149V12.7021C299.683 12.7021 298.413 12.2787 297.566 12.2787C295.873 12.2787 294.603 12.7021 294.18 13.5489C293.757 14.3957 293.333 15.666 293.333 17.783C293.333 19.9 293.757 21.1702 294.18 22.017C294.603 22.8638 295.873 23.2872 297.566 23.2872L301.799 22.8638V26.6745C299.259 27.0979 297.143 27.5213 295.873 27.5213C293.333 27.5213 291.217 26.6745 289.947 25.4043C288.677 24.134 288.254 21.5936 288.254 18.2064C288.254 14.8191 288.677 12.2787 289.947 11.0085C291.217 8.89149 293.333 8.04468 295.873 8.04468Z" fill="white"/>
<path d="M315.344 15.666C315.344 14.3957 314.921 13.1255 314.497 12.7021C314.074 12.2787 313.227 11.8553 311.958 11.8553C310.688 11.8553 309.841 12.2787 309.418 12.7021C308.995 13.5489 308.995 14.3957 308.995 15.666H315.344ZM309.841 22.017C310.265 22.4404 311.111 22.8638 312.381 22.8638C314.497 22.8638 316.614 22.8638 318.307 22.4404H319.153V25.8277C316.19 26.6745 313.651 26.6745 311.534 26.6745C308.571 26.6745 306.878 25.8277 305.608 24.5574C304.339 23.2872 303.915 20.7468 303.915 17.3596C303.915 11.0085 306.455 7.62128 311.958 7.62128C317.46 7.62128 320 10.1617 320 15.666L319.577 19.0532H308.995C308.995 20.7468 308.995 21.5936 309.841 22.017Z" fill="white"/>
<path d="M280.212 104.157H177.778V137.606H246.772C265.397 137.606 280.212 122.787 280.212 104.157Z" fill="#F37021"/>
<path d="M320 48.6915H211.64C193.016 48.6915 177.778 63.5106 177.778 82.1404H286.138C304.762 82.1404 320 66.8979 320 48.6915Z" fill="#F37021"/>
<path d="M231.534 208.738C202.328 204.928 143.492 197.73 113.862 193.919C106.667 193.072 99.8942 187.991 98.6243 180.794C96.0846 169.785 104.55 160.047 115.556 160.047H177.778V137.606H152.381C143.069 137.606 135.45 129.985 135.45 121.094C135.45 111.779 143.069 104.581 152.381 104.581H177.778V82.1404H0V96.5362C0 119.823 17.3545 139.723 41.0582 142.687H0V156.66C0 179.947 17.3545 199.847 41.0582 202.811H0V217.206C0 240.494 17.3545 260.394 41.0582 263.357C86.3492 269.285 221.799 286.645 221.799 286.645C231.534 287.915 238.307 296.806 236.614 306.545C235.344 315.013 227.302 320.94 218.413 320.94C218.413 320.94 113.439 320.94 78.7301 320.94C35.1323 320.094 0 355.236 0 398H216.296C266.667 398 310.688 360.74 314.921 311.202C319.577 260.394 282.328 215.513 231.534 208.738Z" fill="white"/>
</g>
<defs>
<clipPath id="clip0_432_11050">
<rect width="320" height="398" fill="white"/>
</clipPath>
</defs>
</svg>
