<svg width="32" height="32" viewBox="0 0 32 32" fill="none" xmlns="http://www.w3.org/2000/svg">
<path d="M31.085 4.37461C30.6142 3.90305 29.8504 3.90224 29.3797 4.37261L14.9114 18.8027L9.69125 13.1332C9.24018 12.6436 8.47756 12.6118 7.98712 13.0628C7.49706 13.5139 7.46568 14.2769 7.91675 14.7669L13.9871 21.3595C14.2094 21.6011 14.5206 21.7414 14.8486 21.7482C14.8574 21.7486 14.8659 21.7486 14.8744 21.7486C15.1932 21.7486 15.4999 21.622 15.7258 21.3969L31.0826 6.0803C31.5546 5.60999 31.5554 4.84618 31.085 4.37461Z" fill="#ED6F27"/>
<path d="M30.7939 14.7939C30.1278 14.7939 29.5879 15.3338 29.5879 16C29.5879 23.4927 23.4927 29.5879 16 29.5879C8.50775 29.5879 2.41206 23.4927 2.41206 16C2.41206 8.50775 8.50775 2.41206 16 2.41206C16.6661 2.41206 17.2061 1.87219 17.2061 1.20606C17.2061 0.539875 16.6661 0 16 0C7.1775 0 0 7.1775 0 16C0 24.8221 7.1775 32 16 32C24.8221 32 32 24.8221 32 16C32 15.3339 31.4601 14.7939 30.7939 14.7939Z" fill="#ED6F27"/>
</svg>
