<svg width="57" height="57" viewBox="0 0 57 57" fill="none" xmlns="http://www.w3.org/2000/svg">
<circle cx="28.5" cy="28.5" r="28.5" fill="#F3741C"/>
<path d="M20.7891 18.7764V38.2234L37.5538 28.4999L20.7891 18.7764Z" fill="white"/>
</svg>
