<svg width="28" height="19" viewBox="0 0 28 19" fill="none" xmlns="http://www.w3.org/2000/svg">
<path fill-rule="evenodd" clip-rule="evenodd" d="M28 12.6417C28 16.1575 25.2 19 21.7368 19C18.2737 19 15.5474 16.1575 15.5474 12.6417C15.5474 5.68504 21.1474 0 28 0C28 0 23.9474 1.57087 21.8105 6.35827C25.2 6.35827 28 9.20079 28 12.6417ZM12.4526 12.6417C12.4526 16.1575 9.65263 19 6.26316 19C2.87368 19 0 16.1575 0 12.6417C0 5.68504 5.6 0 12.4526 0C12.4526 0 8.4 1.57087 6.26316 6.35827C9.65263 6.35827 12.4526 9.20079 12.4526 12.6417Z" fill="#434F8B"/>
</svg>
