<svg width="59" height="16" viewBox="0 0 59 16" fill="none" xmlns="http://www.w3.org/2000/svg">
<path d="M15.3398 0H18.0539V15.9998H15.3398V0Z" fill="black"/>
<path d="M27.4946 10.929C27.4946 13.4079 25.3706 13.6332 24.6626 13.6332C23.0106 13.6332 22.7746 12.1685 22.7746 11.3797V5.18262H20.0605V11.2671C20.0605 12.7318 20.5325 14.0839 21.4766 14.8727C22.3026 15.6614 23.3646 15.9994 24.6626 15.9994C25.6066 15.9994 26.7866 15.7741 27.4946 15.098V15.9994H30.2086V5.18262H27.4946V10.929Z" fill="black"/>
<path d="M35.5169 1.23975H32.8029V5.18337H30.7969V7.66222H32.8029V16.0002H35.5169V7.66222H37.5229V5.18337H35.5169V1.23975Z" fill="black"/>
<path d="M46.0201 12.7321C45.4301 13.1828 44.6041 13.5208 43.7781 13.5208C41.8901 13.5208 40.5921 12.1687 40.5921 10.3659C40.5921 8.56311 41.8901 7.32369 43.7781 7.32369C44.6041 7.32369 45.4301 7.54904 46.0201 8.11241L46.3741 8.45044L48.2621 6.76032L47.7901 6.42229C46.7281 5.52089 45.3121 4.95752 43.7781 4.95752C40.4741 4.95752 37.9961 7.32369 37.9961 10.4786C37.9961 13.6335 40.4741 15.9997 43.7781 15.9997C45.3121 15.9997 46.7281 15.4363 47.7901 14.5349L48.2621 14.1969L46.3741 12.3941L46.0201 12.7321Z" fill="black"/>
<path d="M57.8206 6.08445C56.9946 5.29572 56.1686 4.9577 54.8706 4.9577C53.9266 4.9577 52.9826 5.18305 52.2746 5.8591V0H49.5605V15.9998H52.2746V10.0281C52.2746 7.54922 54.0446 7.32387 54.7526 7.32387C56.4046 7.32387 56.2866 8.78864 56.2866 9.57737V15.8872H59.0006V9.69004C59.0006 8.22527 58.6466 6.87317 57.8206 6.08445Z" fill="black"/>
<path d="M43.6614 12.2819C44.7042 12.2819 45.5495 11.4747 45.5495 10.4791C45.5495 9.48341 44.7042 8.67627 43.6614 8.67627C42.6187 8.67627 41.7734 9.48341 41.7734 10.4791C41.7734 11.4747 42.6187 12.2819 43.6614 12.2819Z" fill="#EF4335"/>
<path d="M11.564 12.0561C10.62 12.9575 9.20404 13.5209 7.67003 13.5209C4.72002 13.5209 2.59601 11.2674 2.59601 8.22518C2.59601 5.18296 4.72002 2.92946 7.78803 2.92946C9.20404 2.92946 10.62 3.49283 11.6821 4.50691L12.0361 4.84493L13.8061 3.15481L13.4521 2.81678C11.9181 1.35201 9.91204 0.563283 7.78803 0.563283C3.30401 0.450608 0 3.83086 0 8.22518C0 12.6195 3.30401 15.9997 7.67003 15.9997C9.79404 15.9997 11.9181 15.211 13.3341 13.7462L13.6881 13.4082L11.9181 11.7181L11.564 12.0561Z" fill="black"/>
</svg>
