<svg width="65" height="65" viewBox="0 0 65 65" fill="none" xmlns="http://www.w3.org/2000/svg">
<path d="M32.5 65C50.4493 65 65 50.4493 65 32.5C65 14.5507 50.4493 0 32.5 0C14.5507 0 0 14.5507 0 32.5C0 50.4493 14.5507 65 32.5 65Z" fill="#F5F5F5"/>
<path fill-rule="evenodd" clip-rule="evenodd" d="M31.2723 46.7541H33.8231C33.8231 46.7541 34.5937 46.6696 34.987 46.2455C35.3491 45.8562 35.3375 45.125 35.3375 45.125C35.3375 45.125 35.2877 41.7023 36.8763 41.1982C38.4422 40.7017 40.4531 44.5063 42.5845 45.9691C44.1963 47.0763 45.421 46.8335 45.421 46.8335L51.12 46.7541C51.12 46.7541 54.1013 46.5705 52.6877 44.2265C52.5718 44.0347 51.8645 42.4925 48.4504 39.3235C44.877 36.0067 45.3556 36.5432 49.6601 30.806C52.2816 27.312 53.3296 25.1788 53.0023 24.2652C52.69 23.395 50.762 23.625 50.762 23.625L44.3452 23.665C44.3452 23.665 43.8695 23.6001 43.5167 23.811C43.172 24.0178 42.9501 24.4998 42.9501 24.4998C42.9501 24.4998 41.9345 27.2036 40.58 29.503C37.7227 34.355 36.5802 34.6111 36.1133 34.3098C35.027 33.6077 35.2981 31.489 35.2981 29.9839C35.2981 25.2819 36.0113 23.3214 33.9095 22.8139C33.2119 22.6453 32.6986 22.5341 30.9148 22.5162C28.6253 22.4924 26.6874 22.5231 25.5901 23.0607C24.8601 23.4182 24.297 24.2148 24.64 24.2606C25.064 24.3173 26.0246 24.5195 26.5338 25.213C27.1914 26.1075 27.1682 28.1167 27.1682 28.1167C27.1682 28.1167 27.546 33.6517 26.2859 34.3394C25.4209 34.811 24.2344 33.8481 21.6871 29.4463C20.3818 27.1915 19.3963 24.6991 19.3963 24.6991C19.3963 24.6991 19.2063 24.2333 18.8674 23.9842C18.4561 23.6824 17.8813 23.5862 17.8813 23.5862L11.7838 23.6262C11.7838 23.6262 10.8684 23.6517 10.5324 24.0497C10.2334 24.4037 10.5086 25.1359 10.5086 25.1359C10.5086 25.1359 15.2824 36.3045 20.6877 41.9328C25.644 47.0931 31.2723 46.7541 31.2723 46.7541Z" fill="#517EAE"/>
</svg>
